sunitid,runitid,sndamount,reccntry,rstate,Saddress,SCity,sndState,Szipcode,SndrCntry,photo_id_state,LEGAL_INTD_TYPE,s_occupation,RecAddrs,RecCity,RecZip,RecPhotIDType,RlegalID
3488268,3488295,1.17,PHL,CP,751 SE 129TH AVE,APO,AP,96218,USA,MN,INT,DRIVER,88 MAGITING ST NORTHERN HILLS,TARLAC,2300,DRV,33440
3488280,3488288,1.02,PHL,CP,1551 W RIALTO AVE,LANGSTON,OK,730508389,USA,AZ,INT,DRIVER,656 ST NICHOLAS SUBD BANTUG NO,CABANATUAN CITY,3100,GOV,5137
3488281,3488290,1.03,PHL,CP,309 N BROAD ST,WHITTIER,CA,90606,USA,MN,INT,ENGR,082 GEN LUNA ST SEGUNFA PAR,LUMBAN,4014,GOV,4643
3488283,3488291,1.04,PHL,CP,6451 MARCIE STPT A,ALBANY,GA,56789,USA,MN,INT,DRIVER,33 GONZALES ST PTO RIVAS,BALANGA,2100,GOV,1229G
3488284,3488293,1.05,PHL,CP,5 MARIETTA CT,THOMASVILLE,GA,19030,USA,MN,INT,DRIVER,49 DIEGO SILANG ST BGY PASONG,QUEZON CITY,1105,GOV,4567723191
3488286,3488294,1.06,PHL,CP,1007 SHREBERRY RD,HILLSIDE,MN,60104,USA,MN,INT,DRIVER,9521 MASILANG ST GUADALUPE NUE,MAKATI CITY,1212,DRV,36511
3488268,3488295,1.07,PHL,CP,76 N FREMONT ST,SAN MATEO,CA,944013237,USA,MN,INT,AGRICULTURE,102 PINAGAPUGAN TOWNSITE,MARIVELES,2105,GOV,1031-6093B-F48
3488279,3488289,1.08,PHL,CP,1855 WIRT RD,HOUSTON,TX,770552461,USA,MN,INT,DRIVER,98 CABRERA ST EAST BAGONG B,CALOOCAN CITY,1400,GOV,45-5634653-5
3488282,3488292,1.09,PHL,CP,5604 DOLLER FORGE DR,DUNMORE,PA,18512,USA,MN,INT,DRIVER,0 BARANGAY CARMEN,FLORIDABLANCA,2006,GOV,60365766JL1893
