sunitid,senderState,runitid,receiverState,achecktype,reccntry,deloption,reccurr,sndcntry,sndcrncy,delopt_a
3487909,MN,3487939,MN,MTC,USA,WILL_CALL,USD,USA,USD,1
3487910,MN,3487940,MN,MTC,USA,WILL_CALL,USD,USA,USD,1
3487912,MN,3487941,MN,MTC,USA,WILL_CALL,USD,USA,USD,1
3487913,MN,3487942,MN,MTC,USA,WILL_CALL,USD,USA,USD,1
3487914,MN,3487943,MN,MTC,USA,WILL_CALL,USD,USA,USD,1
3487916,MN,3487944,MN,MTC,USA,WILL_CALL,USD,USA,USD,1
3487917,MN,3487945,MN,MTC,USA,WILL_CALL,USD,USA,USD,1
3487919,MN,3487946,MN,MTC,USA,WILL_CALL,USD,USA,USD,1
3487920,MN,3487947,MN,MTC,USA,WILL_CALL,USD,USA,USD,1
3487922,MN,3487948,MN,MTC,USA,WILL_CALL,USD,USA,USD,1
3487923,MN,3487949,MN,MTC,USA,WILL_CALL,USD,USA,USD,1
3487924,MN,3487950,MN,MTC,USA,WILL_CALL,USD,USA,USD,1
3487926,MN,3487951,MN,MTC,USA,WILL_CALL,USD,USA,USD,1
3487927,MN,3487952,MN,MTC,USA,WILL_CALL,USD,USA,USD,1
3487929,MN,3487953,MN,MTC,USA,WILL_CALL,USD,USA,USD,1
3487930,MN,3487954,MN,MTC,USA,WILL_CALL,USD,USA,USD,1
3487931,MN,3487955,MN,MTC,USA,WILL_CALL,USD,USA,USD,1
3487933,MN,3487956,MN,MTC,USA,WILL_CALL,USD,USA,USD,1
3487934,MN,3487957,MN,MTC,USA,WILL_CALL,USD,USA,USD,1
3487936,MN,3487958,MN,MTC,USA,WILL_CALL,USD,USA,USD,1
3487937,MN,3487959,MN,MTC,USA,WILL_CALL,USD,USA,USD,1
3487938,MN,3487960,MN,MTC,USA,WILL_CALL,USD,USA,USD,1
3487969,MN,3487961,MN,MTC,USA,WILL_CALL,USD,USA,USD,1
3487970,MN,3487962,MN,MTC,USA,WILL_CALL,USD,USA,USD,1
3487971,MN,3487963,MN,MTC,USA,WILL_CALL,USD,USA,USD,1
3487972,MN,3487964,MN,MTC,USA,WILL_CALL,USD,USA,USD,1
3487973,MN,3487965,MN,MTC,USA,WILL_CALL,USD,USA,USD,1
3487974,MN,3487966,MN,MTC,USA,WILL_CALL,USD,USA,USD,1
3487975,MN,3487967,MN,MTC,USA,WILL_CALL,USD,USA,USD,1
3487976,MN,3487968,MN,MTC,USA,WILL_CALL,USD,USA,USD,1
