sunitid,runitid,reccurr,achecktype,raddress,rcity,rstate,rzip,rcountry,rphoto_id_type,rphoto_id_state,rphoto_id_cntry,rlegal_id_type,RlegalID,RcvrDOB,rbirthcntry,reccntry,deloption,sstate,sndcntry,sndcrncy,SZipcode,sstate,sndState,SLname,SFname,sender_ocptn,sdob,scountry,SCity,SAddress,S_BithCnty,F1,F2,F3,F4,F5,F6,photo_id_type,photo_id_state,photo_id_cntry,legal_id_type
3488582,3487984,USD,MTC,711 WEST AVE,LAUREL,MD,20708,USA,PAS,MN,USA,INT,3456765876,1949-02-25,USA,USA,WILL_CALL,MN,USA,USD,741602004,MN,MS,WILKERSON,BELEN,DRIVER,1961-02-15,USA,GREENWOOD,5530 YORKSHIRE ST,USA,A,L,A,M,A,M,PAS,AZ,USA,INT
3488583,3487985,USD,MTC,2126 TAMARACK DR,DULUTH,GA,30096,USA,PAS,MN,USA,INT,3456765876,1989-11-21,USA,USA,WILL_CALL,MN,USA,USD,21220,MN,MD,CALE GROSARIO,MIRIAM MARIANA,DRIVER,1975-01-22,USA,MIDDLE RIVER,326 NE 23RD CIR,USA,B,M,B,N,B,N,PAS,MN,USA,INT
3488584,3487986,USD,MTC,18442 EUGENE ST,LONG BEACH,CA,90802,USA,PAS,MN,USA,INT,3456765876,1982-05-17,USA,USA,WILL_CALL,MN,USA,USD,75652,MN,TX,ROBERT,ROBERT,DRIVER,1963-04-17,USA,HENDERSON,3021 COLONIAL DR,USA,C,N,M,O,C,O,PAS,MN,USA,INT
3488586,3487987,USD,MTC,2618 CHESTNUT TRCE,BIRMINGHAM,AL,35244,USA,PAS,MN,USA,INT,3456765876,1963-06-16,USA,USA,WILL_CALL,MN,USA,USD,11210,MN,NY,WOUNDED HEAD,MARY,DRIVER,1989-11-21,USA,BROOKLYN,1 ACE,USA,D,O,N,P,D,P,PAS,MN,USA,INT
3488587,3487988,USD,MTC,306 BUENA VISTA AVE,JACKSONVILLE,FL,32210,USA,PAS,MN,USA,INT,3456765876,1973-06-17,USA,USA,WILL_CALL,MN,USA,USD,33880,MN,FL,BODY,REJANE,DRIVER,1963-06-16,USA,WINTER HAVEN,1030 MEPHAM DR,USA,E,P,O,Q,E,Q,PAS,MN,USA,INT
3488589,3487989,USD,MTC,326 NE 23RD CIR,CERES,CA,953074496,USA,PAS,AZ,USA,INT,3456765876,1985-08-19,USA,USA,WILL_CALL,MN,USA,USD,29135,MN,SC,MOFFETT,TIM,DRIVER,1975-04-16,USA,SAINT MATTHEWS,1726 KENTFIELD AVE,USA,F,Q,P,R,F,R,PAS,MN,USA,INT
3488590,3487990,USD,MTC,5530 YORKSHIRE ST,GREENWOOD,MS,741602004,USA,PAS,AZ,USA,INT,3456765876,1961-02-15,USA,USA,WILL_CALL,MN,USA,USD,56789,MN,CA,WALKER,LETICIA,DRIVER,1973-06-17,USA,LOS ANGELES,6451 MARCIE STPT A,USA,G,R,Q,S,G,S,PAS,MN,USA,INT
3488591,3487991,USD,MTC,326 NE 23RD CIR,MIDDLE RIVER,MD,21220,USA,PAS,MN,USA,INT,3456765876,1975-01-22,USA,USA,WILL_CALL,MN,USA,USD,864425620,MN,AZ,LINDA,LINDA,DRIVER,1971-05-24,USA,BULLHEAD CITY,895 SAN JUAN DR,USA,H,S,R,T,H,T,DRV,AZ,USA,SSN
3488593,3487992,USD,MTC,3021 COLONIAL DR,HENDERSON,TX,75652,USA,PAS,MN,USA,INT,3456765876,1963-04-17,USA,USA,WILL_CALL,MN,USA,USD,95101,MN,CA,BILLUPS,EDWARD,DRIVER,1978-06-19,USA,SAN JOSE,4400 LUNDY AVE,USA,I,T,S,U,I,U,PAS,MN,USA,SSN
3488594,3487993,USD,MTC,1 ACE,BROOKLYN,NY,11210,USA,PAS,MN,USA,INT,3456765876,1989-11-21,USA,USA,WILL_CALL,MN,USA,USD,319068593,MN,GA,BRASHEAR,DEMETRIC,DRIVER,1982-05-17,USA,COLUMBUS,503 COUNTRY CLUB RD,USA,J,U,T,J,J,J,PAS,AZ,USA,INT
3488596,3487994,USD,MTC,1030 MEPHAM DR,WINTER HAVEN,FL,33880,USA,PAS,MN,USA,INT,3456765876,1963-06-16,USA,USA,WILL_CALL,MN,USA,USD,919117059,MN,CA,CARBAJAL,RAMON,DRIVER,1965-08-09,USA,CHULA VISTA,812 CAMINITO CUMBRES,USA,K,V,U,K,K,K,STA,CA,USA,SSN
3488597,3487995,USD,MTC,1726 KENTFIELD AVE,SAINT MATTHEWS,SC,29135,USA,PAS,MN,USA,INT,3456765876,1975-04-16,USA,USA,WILL_CALL,MN,USA,USD,852048017,MN,AZ,JOHN JAIRO,JOHN JAIRO,DRIVER,1985-09-24,USA,MESA,1960 E INTREPID AVE,USA,L,W,L,L,L,L,DRV,AZ,USA,SSN
3488598,3487996,USD,MTC,6451 MARCIE STPT A,LOS ANGELES,CA,56789,USA,PAS,MN,USA,INT,3456765876,1973-06-17,USA,USA,WILL_CALL,MN,USA,USD,889491343,MN,CA,BAKER,SANDRA,DRIVER,1961-02-15,USA,RANCHO CORDOVA,624 W PICKWICK,USA,M,X,M,M,M,M,PAS,AZ,USA,INT
3488599,3487997,USD,MTC,895 SAN JUAN DR,BULLHEAD CITY,AZ,864425620,USA,DRV,AZ,USA,SSN,661541059,1971-05-24,USA,USA,WILL_CALL,MN,USA,USD,770531344,MN,TX,PITRE,RAY,DRIVER,1948-01-15,USA,HOUSTON,15011 MONRAD DR,USA,N,Y,N,N,N,N,DRV,TX,USA,SSN
3488600,3487998,USD,MTC,4400 LUNDY AVE,SAN JOSE,CA,95101,USA,PAS,MN,USA,SSN,456987123,1978-06-19,USA,USA,WILL_CALL,MN,USA,USD,30286,MN,GA,CRUDUP,PAUL CLAY,DRIVER,1961-02-15,USA,THOMASTON,711 WEST AVE,USA,O,Z,O,O,O,O,PAS,MN,USA,INT
3488601,3488611,USD,MTC,503 COUNTRY CLUB RD,COLUMBUS,GA,319068593,USA,PAS,AZ,USA,INT,3456765876,1982-05-17,USA,USA,WILL_CALL,MN,USA,USD,45405,MN,OH,BAMS,POLLIANN,DRIVER,1961-02-15,USA,DAYTON,2230 KENRIDGE PKWY,USA,P,M,P,P,P,P,PAS,MN,USA,INT
3488602,3488612,USD,MTC,812 CAMINITO CUMBRES,CHULA VISTA,CA,919117059,USA,STA,CA,USA,SSN,727752620,1965-08-09,USA,USA,WILL_CALL,MN,USA,USD,92335,MN,CA,STANEIL,LOISE,DRIVER,1963-06-16,USA,FONTANA,1234 1ST AVE S,USA,Q,N,Q,Q,Q,Q,PAS,MN,USA,INT
3488603,3488613,USD,MTC,1960 E INTREPID AVE,MESA,AZ,852048017,USA,DRV,AZ,USA,SSN,192155788,1985-09-24,USA,USA,WILL_CALL,MN,USA,USD,78059,MN,TX,TAYLOR,MATILDE,DRIVER,1987-04-14,USA,NATALIA,120 S 14TH,USA,R,O,R,R,R,R,PAS,MN,USA,INT
3488604,3488614,USD,MTC,624 W PICKWICK,RANCHO CORDOVA,CA,889491343,USA,PAS,AZ,USA,INT,3456765876,1961-02-15,USA,USA,WILL_CALL,MN,USA,USD,56789,MN,GA,ESQUIEL,JOSE,DRIVER,1986-07-17,USA,COLS,1030 MEPHAM DR,USA,S,P,S,S,S,S,PAS,MN,USA,INT
3488605,3488615,USD,MTC,15011 MONRAD DR,HOUSTON,TX,770531344,USA,DRV,TX,USA,SSN,683841305,1948-01-15,USA,USA,WILL_CALL,MN,USA,USD,931802532,MN,FL,HORNSBY,ADRIAENNE,DRIVER,1988-08-08,USA,POMPANO BEACH,1635 HIDDEN SHOALS LN,USA,T,Q,T,T,T,T,PAS,AZ,USA,INT
3488606,3488616,USD,MTC,711 WEST AVE,THOMASTON,GA,30286,USA,PAS,MN,USA,INT,3456765876,1961-02-15,USA,USA,WILL_CALL,MN,USA,USD,424501034,MN,KY,PULIDO,ROSALINA,DRIVER,1963-05-21,USA,PROVIDENCE,2950 N BROADWAY ST,USA,U,R,U,U,U,U,PAS,AZ,USA,INT
3488607,3488617,USD,MTC,2230 KENRIDGE PKWY,DAYTON,OH,45405,USA,PAS,MN,USA,INT,3456765876,1961-02-15,USA,USA,WILL_CALL,MN,USA,USD,77868,MN,TX,TROUT,JOSE,DRIVER,1985-07-14,USA,NAVASOTA,1956 SANTEINE CT,USA,V,S,V,V,V,V,PAS,MN,USA,INT
3488608,3488618,USD,MTC,1234 1ST AVE S,FONTANA,CA,92335,USA,PAS,MN,USA,INT,3456765876,1963-06-16,USA,USA,WILL_CALL,MN,USA,USD,95301,MN,CA,MORGESSERRANO,CLARENCE,DRIVER,1985-08-13,USA,ATWATER,10500 CIBOLA LOOP NW,USA,W,T,W,W,W,W,PAS,MN,USA,INT
3488609,3488619,USD,MTC,120 S 14TH,NATALIA,TX,78059,USA,PAS,MN,USA,INT,3456765876,1987-04-14,USA,USA,WILL_CALL,MN,USA,USD,46406,MN,IN,CORTES,GREGORIA,OTHER,1954-03-12,USA,GARY,EDISON ST PO BOX 5140,USA,X,U,X,L,X,L,PAS,MN,USA,INT
3488610,3488620,USD,MTC,1030 MEPHAM DR,COLS,GA,56789,USA,PAS,MN,USA,INT,3456765876,1986-07-17,USA,USA,WILL_CALL,MN,USA,USD,798722102,MN,MI,BOHORQUEZ,ALLENA,DRIVER,1956-06-12,USA,DETROIT,21701 FOOTHILL BLVD,USA,Y,V,Y,M,Y,M,PAS,AZ,USA,INT
3488995,3488621,USD,MTC,1635 HIDDEN SHOALS LN,POMPANO BEACH,FL,931802532,USA,PAS,AZ,USA,INT,3456765876,1988-08-08,USA,USA,WILL_CALL,MN,USA,USD,73017,MN,OK,BEGAY,MATTHEW,DRIVER,1963-05-21,USA,CEMENT,722 HOMESTEAD ST,USA,Z,W,Z,N,Z,N,PAS,MN,USA,INT
3488585,3488622,USD,MTC,2950 N BROADWAY ST,PROVIDENCE,KY,424501034,USA,PAS,AZ,USA,INT,3456765876,1963-05-21,USA,USA,WILL_CALL,MN,USA,USD,29138,MN,SC,FELIPE DE,FELIPE DE,DRIVER,1986-06-16,USA,SALUDA,1007 SHREBERRY RD,USA,A,X,A,O,P,O,PAS,MN,USA,INT
3488588,3488623,USD,MTC,1956 SANTEINE CT,NAVASOTA,TX,77868,USA,PAS,MN,USA,INT,3456765876,1985-07-14,USA,USA,WILL_CALL,MN,USA,USD,29407,MN,SC,JOINER,ALEXANDER,DRIVER,1986-08-25,USA,CHARLESTON,5829 ROCKFISH,USA,B,Y,B,P,Q,P,PAS,MN,USA,INT
3488592,3488624,USD,MTC,10500 CIBOLA LOOP NW,ATWATER,CA,95301,USA,PAS,MN,USA,INT,3456765876,1985-08-13,USA,USA,WILL_CALL,MN,USA,USD,833634837,MN,IL,BOWLING,JEANTY,DRIVER,1949-02-25,USA,CHICAGO,1849 UN,USA,C,Z,C,Q,R,Q,PAS,AZ,USA,INT
3488595,3488625,USD,MTC,EDISON ST PO BOX 5140,GARY,IN,46406,USA,PAS,MN,USA,INT,3456765876,1954-03-12,USA,USA,WILL_CALL,MN,USA,USD,802342761,MN,CO,HARDY,BRANDON,DRIVER,1949-02-25,USA,DENVER,1418 BONITA PL,USA,D,L,D,R,S,R,PAS,AZ,USA,INT
3488582,3487984,USD,MTC,21701 FOOTHILL BLVD,DETROIT,MI,798722102,USA,PAS,AZ,USA,INT,3456765876,1956-06-12,USA,USA,WILL_CALL,MN,USA,USD,95422,MN,CA,SMITH,SYLVIA IVETH,DRIVER,1982-05-17,USA,CLEARLAKE,4891 PERSIMMON BEND LN,USA,E,M,E,S,T,S,PAS,MN,USA,INT
3488583,3487985,USD,MTC,722 HOMESTEAD ST,CEMENT,OK,73017,USA,PAS,MN,USA,INT,3456765876,1963-05-21,USA,USA,WILL_CALL,MN,USA,USD,80214,MN,CO,WATSON,JUANITA,DRIVER,1985-07-14,USA,LAKEWOOD,2618 CHESTNUT DR,USA,F,N,F,T,U,T,PAS,MN,USA,INT
3488584,3487986,USD,MTC,1007 SHREBERRY RD,SALUDA,SC,29138,USA,PAS,MN,USA,INT,3456765876,1986-06-16,USA,USA,WILL_CALL,MN,USA,USD,75691,MN,TX,TURNER,VANCHEZ,DRIVER,1949-02-25,USA,TATUM,254 SHARPTOWN S,USA,G,O,G,U,V,U,PAS,MN,USA,INT
3488586,3487987,USD,MTC,5829 ROCKFISH,CHARLESTON,SC,29407,USA,PAS,MN,USA,INT,3456765876,1986-08-25,USA,USA,WILL_CALL,MN,USA,USD,73401,MN,OK,CURTIS,TIMICA,DRIVER,1983-01-09,USA,ARDMORE,1692 DARK CR RD,USA,H,P,H,V,W,V,PAS,MN,USA,INT
3488587,3487988,USD,MTC,1849 UN,CHICAGO,IL,833634837,USA,PAS,AZ,USA,INT,3456765876,1949-02-25,USA,USA,WILL_CALL,MN,USA,USD,90249,MN,CA,ROGER,ROGER,DRIVER,1985-06-28,USA,GARDENA,1 OCEAN LN,USA,I,Q,I,W,X,W,PAS,MN,USA,INT
3488589,3487989,USD,MTC,1418 BONITA PL,DENVER,CO,802342761,USA,PAS,AZ,USA,INT,3456765876,1949-02-25,USA,USA,WILL_CALL,MN,USA,USD,38019,MN,TN,WYCHE,JOE,DRIVER,1975-04-16,USA,COVINGTON,8839 ROBIN CV,USA,J,R,J,X,Y,X,PAS,MN,USA,INT
3488590,3487990,USD,MTC,4891 PERSIMMON BEND LN,CLEARLAKE,CA,95422,USA,PAS,MN,USA,INT,3456765876,1982-05-17,USA,USA,WILL_CALL,MN,USA,USD,972289567,MN,LA,RODRIGUEZ,FRANCISCO,DRIVER,1961-02-15,USA,MONROE,2033 VALENTINE AVE,USA,K,S,K,Y,Z,Y,PAS,AZ,USA,INT
3488591,3487991,USD,MTC,2618 CHESTNUT DR,LAKEWOOD,CO,80214,USA,PAS,MN,USA,INT,3456765876,1985-07-14,USA,USA,WILL_CALL,MN,USA,USD,966495797,MN,FL,MARROQUI,CONSUELO,DRIVER,1983-07-18,USA,OCALA,10500 CIBOLA LOOP NW,USA,L,T,L,Z,L,Z,PAS,AZ,USA,INT
3488593,3487992,USD,MTC,254 SHARPTOWN S,TATUM,TX,75691,USA,PAS,MN,USA,INT,3456765876,1949-02-25,USA,USA,WILL_CALL,MN,USA,USD,955216924,MN,CA,KRIGEL,TAMAR,DRIVER,1973-02-04,USA,ARCATA,2222 BUTTERMILK LN,USA,M,U,M,A,M,A,DRV,CA,USA,SSN
3488594,3487993,USD,MTC,1692 DARK CR RD,ARDMORE,OK,73401,USA,PAS,MN,USA,INT,3456765876,1983-01-09,USA,USA,WILL_CALL,MN,USA,USD,11412,MN,NY,SCHERTZ,SCOTT,DRIVER,1983-07-18,USA,SAINT ALBANS,1551 W RIALTO AVE,USA,N,V,N,R,N,I,PAS,MN,USA,INT
3488596,3487994,USD,MTC,1 OCEAN LN,GARDENA,CA,90249,USA,PAS,MN,USA,INT,3456765876,1985-06-28,USA,USA,WILL_CALL,MN,USA,USD,78252,MN,TX,LINDSAY,LASHAWN,DRIVER,1969-05-23,USA,SAN ANTONIO,5326 80TH AVE SW,USA,O,W,O,S,O,J,PAS,MN,USA,INT
3488597,3487995,USD,MTC,8839 ROBIN CV,COVINGTON,TN,38019,USA,PAS,MN,USA,INT,3456765876,1975-04-16,USA,USA,WILL_CALL,MN,USA,USD,56789,MN,CA,EDWARDS,DEBBIE,DRIVER,1969-05-23,USA,PETALUMA,607 ASHBURN ST,USA,P,X,P,T,P,K,PAS,MN,USA,INT
3488598,3487996,USD,MTC,2033 VALENTINE AVE,MONROE,LA,972289567,USA,PAS,AZ,USA,INT,3456765876,1961-02-15,USA,USA,WILL_CALL,MN,USA,USD,902807564,MN,CA,STAGG,PATRICK,DRIVER,1963-05-21,USA,SOUTH GATE,13 BRUCE ST,USA,Q,T,Q,U,Q,L,PAS,AZ,USA,INT
3488599,3487997,USD,MTC,10500 CIBOLA LOOP NW,OCALA,FL,966495797,USA,PAS,AZ,USA,INT,3456765876,1983-07-18,USA,USA,WILL_CALL,MN,USA,USD,706196729,MN,MO,MADRIGAL,RICHARD,DRIVER,1963-04-17,USA,SAINT JOSEPH,5013 TOMMANS TRL,USA,R,Y,R,V,R,M,PAS,AZ,USA,INT
3488600,3487998,USD,MTC,2222 BUTTERMILK LN,ARCATA,CA,955216924,USA,DRV,CA,USA,SSN,720547253,1973-02-04,USA,USA,WILL_CALL,MN,USA,USD,11435,MN,NY,TELENKO,MARY,DRIVER,1963-06-16,USA,JAMAICA,81 HARRY S TRUMAN DR,USA,S,Z,S,W,S,N,PAS,MN,USA,INT
3488601,3488611,USD,MTC,1551 W RIALTO AVE,SAINT ALBANS,NY,11412,USA,PAS,MN,USA,INT,3456765876,1983-07-18,USA,USA,WILL_CALL,MN,USA,USD,62040,MN,IL,BURLEY,RONICA,DRIVER,1963-06-16,USA,GRANITE CITY,4850 TAMARA,USA,T,M,T,X,T,O,PAS,MN,USA,INT
3488602,3488612,USD,MTC,5326 80TH AVE SW,SAN ANTONIO,TX,78252,USA,PAS,MN,USA,INT,3456765876,1969-05-23,USA,USA,WILL_CALL,MN,USA,USD,953013683,MN,CA,PARTIN,PRINCESS,DRIVER,1985-08-13,USA,ATWATER,1424 LEONIDAS ST,USA,U,N,U,Y,U,P,PAS,AZ,USA,INT
3488603,3488613,USD,MTC,607 ASHBURN ST,PETALUMA,CA,56789,USA,PAS,MN,USA,INT,3456765876,1969-05-23,USA,USA,WILL_CALL,MN,USA,USD,85741,MN,AZ,CLARINDA,CLARINDA,DRIVER,1990-06-16,USA,TUCSON,2300 W INA RD,USA,V,O,V,Z,V,Q,STA,AZ,USA,SSN
3488604,3488614,USD,MTC,13 BRUCE ST,SOUTH GATE,CA,902807564,USA,PAS,AZ,USA,INT,3456765876,1963-05-21,USA,USA,WILL_CALL,MN,USA,USD,863518916,MN,AZ,NICOLE,NICOLE,DRIVER,1968-08-05,USA,SEDONA,25 CASCABEL CT,USA,W,P,W,C,W,R,DRV,AZ,USA,SSN
3488605,3488615,USD,MTC,5013 TOMMANS TRL,SAINT JOSEPH,MO,706196729,USA,PAS,AZ,USA,INT,3456765876,1963-04-17,USA,USA,WILL_CALL,MN,USA,USD,92223,MN,CA,OVALLE,SHIRLEY,DRIVER,1986-06-16,USA,BEAUMONT,901 HIGH ST,USA,X,Q,X,D,X,S,PAS,MN,USA,INT
3488606,3488616,USD,MTC,81 HARRY S TRUMAN DR,JAMAICA,NY,11435,USA,PAS,MN,USA,INT,3456765876,1963-06-16,USA,USA,WILL_CALL,MN,USA,USD,48219,MN,MI,ROBINSON,CANDELARIO,OTHER,1986-06-16,USA,DETROIT,23120 WHISPERING RIDGE DR,USA,Y,R,Y,E,Y,T,PAS,MN,USA,INT
3488607,3488617,USD,MTC,4850 TAMARA,GRANITE CITY,IL,62040,USA,PAS,MN,USA,INT,3456765876,1963-06-16,USA,USA,WILL_CALL,MN,USA,USD,19013,MN,PA,THAMESGWALKER,TYRONZA,DRIVER,1978-06-19,USA,CHESTER,206 W TEXAS AVE,USA,Z,S,Z,F,Z,U,PAS,MN,USA,INT
3488608,3488618,USD,MTC,1424 LEONIDAS ST,ATWATER,CA,953013683,USA,PAS,AZ,USA,INT,3456765876,1985-08-13,USA,USA,WILL_CALL,MN,USA,USD,848064997,MN,NY,JONES,CHARMELLA,DRIVER,1982-03-02,USA,BROOKLYN,2433 SOPHIA DR,USA,A,T,A,G,A,V,PAS,AZ,USA,INT
3488609,3488619,USD,MTC,2300 W INA RD,TUCSON,AZ,85741,USA,STA,AZ,USA,SSN,724390107,1990-06-16,USA,USA,WILL_CALL,MN,USA,USD,900222526,MN,CA,HERNANDEZ,ALICIA,DRIVER,1950-06-13,USA,LOS ANGELES,728 S KERN AVE,USA,B,U,B,H,L,W,STA,CA,USA,SSN
3488610,3488620,USD,MTC,25 CASCABEL CT,SEDONA,AZ,863518916,USA,DRV,AZ,USA,SSN,697036479,1968-08-05,USA,USA,WILL_CALL,MN,USA,USD,92335,MN,CA,ADAMS,CARLOS,DRIVER,1986-07-17,USA,FONTANA,343 CAUSBY RD,USA,C,V,C,I,M,X,PAS,MN,USA,INT
3488995,3488621,USD,MTC,901 HIGH ST,BEAUMONT,CA,92223,USA,PAS,MN,USA,INT,3456765876,1986-06-16,USA,USA,WILL_CALL,MN,USA,USD,35501,MN,AL,ALEXANDER,MARIA,DRIVER,1983-07-18,USA,JASPER,1980 HORAL DR,USA,D,W,D,J,N,Y,PAS,MN,USA,INT
3488585,3488622,USD,MTC,23120 WHISPERING RIDGE DR,DETROIT,MI,48219,USA,PAS,MN,USA,INT,3456765876,1986-06-16,USA,USA,WILL_CALL,MN,USA,USD,945892130,MN,CA,HANES,LUTHER,DRIVER,1972-03-10,USA,VALLEJO,1862 GRIFFIN DR,USA,E,X,E,K,O,Z,DRV,CA,USA,SSN
3488588,3488623,USD,MTC,206 W TEXAS AVE,CHESTER,PA,19013,USA,PAS,MN,USA,INT,3456765876,1978-06-19,USA,USA,WILL_CALL,MN,USA,USD,932277616,MN,NY,CISNERO,VALERIE,DRIVER,1982-03-02,USA,BROOKLYN,122 PIERCE LAND,USA,F,Y,F,L,P,L,PAS,AZ,USA,INT
3488592,3488624,USD,MTC,2433 SOPHIA DR,BROOKLYN,NY,848064997,USA,PAS,AZ,USA,INT,3456765876,1982-03-02,USA,USA,WILL_CALL,MN,USA,USD,704864007,MN,PA,BUSH,CYNTHIA,DRIVER,1982-03-02,USA,READING,5354 S 16TH ST,USA,G,Z,G,M,Q,M,PAS,AZ,USA,INT
3488595,3488625,USD,MTC,728 S KERN AVE,LOS ANGELES,CA,900222526,USA,STA,CA,USA,SSN,683430420,1950-06-13,USA,USA,WILL_CALL,MN,USA,USD,75243,MN,TX,DALIGOU,RICHARD,DRIVER,1981-04-03,USA,DALLAS,9001 MARKVILLE DR,USA,H,L,H,N,R,N,DRV,TX,USA,SSN
3488582,3487984,USD,MTC,343 CAUSBY RD,FONTANA,CA,92335,USA,PAS,MN,USA,INT,3456765876,1986-07-17,USA,USA,WILL_CALL,MN,USA,USD,32703,MN,FL,CLARK,LOLA,DRIVER,1985-08-19,USA,APOPKA,44636 FLORIDA AVE,USA,I,M,I,O,S,O,PAS,MN,USA,INT
3488583,3487985,USD,MTC,1980 HORAL DR,JASPER,AL,35501,USA,PAS,MN,USA,INT,3456765876,1983-07-18,USA,USA,WILL_CALL,MN,USA,USD,80916,MN,CO,LOPEZ,RAVEN,DRIVER,1989-11-21,USA,COLORADO SPRINGS,6834 S ELIZABETH,USA,J,N,J,P,T,P,PAS,MN,USA,INT
3488584,3487986,USD,MTC,1862 GRIFFIN DR,VALLEJO,CA,945892130,USA,DRV,CA,USA,SSN,661784809,1972-03-10,USA,USA,WILL_CALL,MN,USA,USD,93550,MN,CA,TRUSS,MICHELLE,DRIVER,1987-04-14,USA,PALMDALE,169 CYPRESS AV,USA,K,O,K,Q,U,Q,PAS,MN,USA,INT
3488586,3487987,USD,MTC,122 PIERCE LAND,BROOKLYN,NY,932277616,USA,PAS,AZ,USA,INT,3456765876,1982-03-02,USA,USA,WILL_CALL,MN,USA,USD,48235,MN,MI,JENNIFER,JENNIFER,DRIVER,1963-04-17,USA,DETROIT,612 HANIA DR SW,USA,L,P,L,R,V,R,PAS,MN,USA,INT
3488587,3487988,USD,MTC,5354 S 16TH ST,READING,PA,704864007,USA,PAS,AZ,USA,INT,3456765876,1982-03-02,USA,USA,WILL_CALL,MN,USA,USD,674013728,MN,KS,GONZALEZ,ERICA,DRIVER,1963-04-17,USA,SALINA,405 SEITZ DR,USA,M,Q,M,S,W,S,PAS,AZ,USA,INT
3488589,3487989,USD,MTC,9001 MARKVILLE DR,DALLAS,TX,75243,USA,DRV,TX,USA,SSN,752239962,1981-04-03,USA,USA,WILL_CALL,MN,USA,USD,945400917,MN,VA,WASHINGTON,BOBBY,DRIVER,1983-01-09,USA,WOODBRIDGE,1966 SW 31ST AVE,USA,N,R,N,T,X,T,PAS,AZ,USA,INT
3488590,3487990,USD,MTC,44636 FLORIDA AVE,APOPKA,FL,32703,USA,PAS,MN,USA,INT,3456765876,1985-08-19,USA,USA,WILL_CALL,MN,USA,USD,56789,MN,GA,MYERS,TIM,DRIVER,1985-08-13,USA,NORCROSS,294 SAWGRASS WAY,USA,O,S,O,U,Y,U,PAS,MN,USA,INT
3488591,3487991,USD,MTC,6834 S ELIZABETH,COLORADO SPRINGS,CO,80916,USA,PAS,MN,USA,INT,3456765876,1989-11-21,USA,USA,WILL_CALL,MN,USA,USD,919131439,MN,CA,LEWIS,SHIRA,DRIVER,1985-09-17,USA,CHULA VISTA,1229 ROCKLAND CT,USA,P,T,P,V,Z,V,ALN,AZ,USA,SSN
3488593,3487992,USD,MTC,169 CYPRESS AV,PALMDALE,CA,93550,USA,PAS,MN,USA,INT,3456765876,1987-04-14,USA,USA,WILL_CALL,MN,USA,USD,978013724,MN,OR,FOSTER,ERIC,DRIVER,1973-06-17,USA,PENDLETON,7432 KRAFT AVE,USA,Q,U,Q,W,A,W,PAS,AZ,USA,INT
3488594,3487993,USD,MTC,612 HANIA DR SW,DETROIT,MI,48235,USA,PAS,MN,USA,INT,3456765876,1963-04-17,USA,USA,WILL_CALL,MN,USA,USD,29945,MN,SC,KENYA,KENYA,DRIVER,1985-08-19,USA,YEMASSEE,3200 FERNANDINA RD APT,USA,R,V,R,X,L,X,PAS,MN,USA,INT
3488596,3487994,USD,MTC,405 SEITZ DR,SALINA,KS,674013728,USA,PAS,AZ,USA,INT,3456765876,1963-04-17,USA,USA,WILL_CALL,MN,USA,USD,48235,MN,MI,HERRINGTON,DONNA,DRIVER,1985-08-19,USA,DETROIT,5607 VIRGINIA AVE,USA,S,W,S,Y,M,Y,PAS,MN,USA,INT
3488597,3487995,USD,MTC,1966 SW 31ST AVE,WOODBRIDGE,VA,945400917,USA,PAS,AZ,USA,INT,3456765876,1983-01-09,USA,USA,WILL_CALL,MN,USA,USD,652657432,MN,MO,ARMSTRONG,LORENZO,DRIVER,1986-06-16,USA,MEXICO,9211 CITADEL DR,USA,T,B,T,Z,N,Z,PAS,AZ,USA,INT
3488598,3487996,USD,MTC,294 SAWGRASS WAY,NORCROSS,GA,56789,USA,PAS,MN,USA,INT,3456765876,1985-08-13,USA,USA,WILL_CALL,MN,USA,USD,95101,MN,CA,FORREST,FORREST,DRIVER,1985-06-28,USA,SAN JOSE,4400 LUNDY AVE,USA,U,T,U,A,O,A,PAS,MN,USA,SSN
3488599,3487997,USD,MTC,1229 ROCKLAND CT,CHULA VISTA,CA,919131439,USA,ALN,AZ,USA,SSN,491316144,1985-09-17,USA,USA,WILL_CALL,MN,USA,USD,851224556,MN,AZ,JIM,JIM,DRIVER,1941-04-27,USA,CASA GRANDE,455 E DOAN ST,USA,V,U,V,F,P,L,DRV,AZ,USA,SSN
3488600,3487998,USD,MTC,7432 KRAFT AVE,PENDLETON,OR,978013724,USA,PAS,AZ,USA,INT,3456765876,1973-06-17,USA,USA,WILL_CALL,MN,USA,USD,302814513,MN,GA,ALFRED,JIMMY,DRIVER,1956-06-12,USA,STOCKBRIDGE,127 HAY LAKE DR,USA,W,I,W,G,Q,M,PAS,AZ,USA,INT
3488601,3488611,USD,MTC,3200 FERNANDINA RD APT,YEMASSEE,SC,29945,USA,PAS,MN,USA,INT,3456765876,1985-08-19,USA,USA,WILL_CALL,MN,USA,USD,75041,MN,TX,STEWART,DELROY,DRIVER,1986-06-16,USA,GARLAND,4500 BISHOPMILL CIR,USA,X,M,X,H,R,N,PAS,MN,USA,INT
3488602,3488612,USD,MTC,5607 VIRGINIA AVE,DETROIT,MI,48235,USA,PAS,MN,USA,INT,3456765876,1985-08-19,USA,USA,WILL_CALL,MN,USA,USD,90051,MN,CA,EBERHART,RENE,DRIVER,1975-01-22,USA,LOS ANGELES,555 HOLINESS CHURCH RD,USA,Y,N,Y,I,S,O,PAS,MN,USA,INT
3488603,3488613,USD,MTC,9211 CITADEL DR,MEXICO,MO,652657432,USA,PAS,AZ,USA,INT,3456765876,1986-06-16,USA,USA,WILL_CALL,MN,USA,USD,13057,MN,NY,CHRISTY,CHRISTY,DRIVER,1978-06-19,USA,EAST SYRACUSE,8822 CARMEN AVILA RD,USA,Z,O,Z,J,T,P,PAS,MN,USA,INT
3488604,3488614,USD,MTC,4400 LUNDY AVE,SAN JOSE,CA,95101,USA,PAS,MN,USA,SSN,789654123,1985-06-28,USA,USA,WILL_CALL,MN,USA,USD,36089,MN,AL,ALLEN,JASON,DRIVER,1963-04-17,USA,UNION SPRINGS,808 NW 29 ST,USA,A,P,A,K,U,Q,PAS,MN,USA,INT
3488605,3488615,USD,MTC,455 E DOAN ST,CASA GRANDE,AZ,851224556,USA,DRV,AZ,USA,SSN,661952116,1941-04-27,USA,USA,WILL_CALL,MN,USA,USD,90305,MN,CA,ROMERO,ZANAYA,DRIVER,1978-06-19,USA,INGLEWOOD,1849 ENDSLEIGH AVE,USA,B,Q,B,L,V,R,PAS,MN,USA,INT
3488606,3488616,USD,MTC,127 HAY LAKE DR,STOCKBRIDGE,GA,302814513,USA,PAS,AZ,USA,INT,3456765876,1956-06-12,USA,USA,WILL_CALL,MN,USA,USD,29824,MN,SC,LASHER JR,ABRAHAM,DRIVER,1963-06-16,USA,EDGEFIELD,24749 BARR CHAPEL RD,USA,C,R,C,M,W,S,PAS,MN,USA,INT
3488607,3488617,USD,MTC,4500 BISHOPMILL CIR,GARLAND,TX,75041,USA,PAS,MN,USA,INT,3456765876,1986-06-16,USA,USA,WILL_CALL,MN,USA,USD,20878,MN,MD,CASTELLANOS,RUTILIO,DRIVER,1951-02-07,USA,GAITHERSBURG,111 WILDCAT DR,USA,D,S,D,N,X,T,PAS,MN,USA,INT
3488608,3488618,USD,MTC,555 HOLINESS CHURCH RD,LOS ANGELES,CA,90051,USA,PAS,MN,USA,INT,3456765876,1975-01-22,USA,USA,WILL_CALL,MN,USA,USD,22556,MN,VA,FRANKLIN,TINICIA,DRIVER,1975-04-16,USA,STAFFORD,187 PINEAPPLE LN,USA,E,T,E,O,Y,U,PAS,MN,USA,INT
3488609,3488619,USD,MTC,8822 CARMEN AVILA RD,EAST SYRACUSE,NY,13057,USA,PAS,MN,USA,INT,3456765876,1978-06-19,USA,USA,WILL_CALL,MN,USA,USD,91911,MN,CA,LEWIS,LINDA,DRIVER,1982-05-17,USA,CHULA VISTA,2721 WABASH ST,USA,F,U,F,P,Z,V,PAS,MN,USA,INT
3488610,3488620,USD,MTC,808 NW 29 ST,UNION SPRINGS,AL,36089,USA,PAS,MN,USA,INT,3456765876,1963-04-17,USA,USA,WILL_CALL,MN,USA,USD,92139,MN,CA,COLLINS,TOMEKA,DRIVER,1982-03-02,USA,SAN DIEGO,7240 COUNTY ROAD 492,USA,G,V,G,Q,A,W,PAS,MN,USA,INT
3488995,3488621,USD,MTC,1849 ENDSLEIGH AVE,INGLEWOOD,CA,90305,USA,PAS,MN,USA,INT,3456765876,1978-06-19,USA,USA,WILL_CALL,MN,USA,USD,75691,MN,TX,TURNER,VANCHEZ,DRIVER,1949-02-25,USA,TATUM,254 SHARPTOWN S,USA,H,W,H,R,L,X,PAS,MN,USA,INT
3488585,3488622,USD,MTC,24749 BARR CHAPEL RD,EDGEFIELD,SC,29824,USA,PAS,MN,USA,INT,3456765876,1963-06-16,USA,USA,WILL_CALL,MN,USA,USD,56789,MN,CA,VERDUGO,AURORA,DRIVER,1949-02-25,USA,LONG BEACH,4475 W DAKOTA ST,USA,I,X,I,S,M,Y,PAS,MN,USA,INT
3488588,3488623,USD,MTC,111 WILDCAT DR,GAITHERSBURG,MD,20878,USA,PAS,MN,USA,INT,3456765876,1951-02-07,USA,USA,WILL_CALL,MN,USA,USD,86046,MN,AZ,DOMINIQUE,DOMINIQUE,DRIVER,1988-03-09,USA,WILLIAMS,6539 N SANTA FE RD,USA,J,Y,J,T,N,Z,STA,AZ,USA,SSN
3488592,3488624,USD,MTC,187 PINEAPPLE LN,STAFFORD,VA,22556,USA,PAS,MN,USA,INT,3456765876,1975-04-16,USA,USA,WILL_CALL,MN,USA,USD,46526,MN,IN,ROMBS,TYRA,DRIVER,1987-04-14,USA,GOSHEN,4500 BISHOPMILL CIR,USA,K,Z,K,U,O,A,PAS,MN,USA,INT
3488595,3488625,USD,MTC,2721 WABASH ST,CHULA VISTA,CA,91911,USA,PAS,MN,USA,INT,3456765876,1982-05-17,USA,USA,WILL_CALL,MN,USA,USD,854642231,MN,LA,COLEMAN,GUILLERMO,DRIVER,1985-08-13,USA,SLIDELL,2614 GRIFFIN AVE,USA,L,L,L,V,P,L,PAS,AZ,USA,INT
3488582,3487984,USD,MTC,7240 COUNTY ROAD 492,SAN DIEGO,CA,92139,USA,PAS,MN,USA,INT,3456765876,1982-03-02,USA,USA,WILL_CALL,MN,USA,USD,31707,MN,GA,MENDOZA,WALTER,DRIVER,1975-01-22,USA,ALBANY,120 W LAZY ACRE RD,USA,M,M,M,W,Q,M,PAS,MN,USA,INT
3488583,3487985,USD,MTC,254 SHARPTOWN S,TATUM,TX,75691,USA,PAS,MN,USA,INT,3456765876,1949-02-25,USA,USA,WILL_CALL,MN,USA,USD,901283313,MN,CA,ROMERO,DEBRA,DRIVER,1966-11-08,USA,CARLSBAD,810 SKYFIELD AVE,USA,N,N,N,X,R,N,ALN,AZ,USA,SSN
3488584,3487986,USD,MTC,4475 W DAKOTA ST,LONG BEACH,CA,56789,USA,PAS,MN,USA,INT,3456765876,1949-02-25,USA,USA,WILL_CALL,MN,USA,USD,30628,MN,GA,MURPHY,TIMOTHY,ENGR,1988-08-08,USA,COLBERT,10 SKYLAND DR,USA,O,O,O,Y,S,O,PAS,MN,USA,INT
3488586,3487987,USD,MTC,6539 N SANTA FE RD,WILLIAMS,AZ,86046,USA,STA,AZ,USA,SSN,723680747,1988-03-09,USA,USA,WILL_CALL,MN,USA,USD,71852,MN,AR,QUINTANILLA,MARY,DRIVER,1985-07-14,USA,NASHVILLE,26575 CARTRIGHT,USA,P,P,P,Z,T,P,PAS,MN,USA,INT
3488587,3487988,USD,MTC,4500 BISHOPMILL CIR,GOSHEN,IN,46526,USA,PAS,MN,USA,INT,3456765876,1987-04-14,USA,USA,WILL_CALL,MN,USA,USD,28613,MN,NC,SMITH,EMILY,DRIVER,1987-04-14,USA,CONOVER,9061 SEWARD PARK AVE 29,USA,Q,Q,Q,,U,Q,PAS,MN,USA,INT
3488589,3487989,USD,MTC,2614 GRIFFIN AVE,SLIDELL,LA,854642231,USA,PAS,AZ,USA,INT,3456765876,1985-08-13,USA,USA,WILL_CALL,MN,USA,USD,53206,MN,WI,ROBERT,ROBERT,DRIVER,1985-08-19,USA,MILWAUKEE,1415 ROAD RUNNER,USA,R,R,R,A,V,R,PAS,MN,USA,INT
3488590,3487990,USD,MTC,120 W LAZY ACRE RD,ALBANY,GA,31707,USA,PAS,MN,USA,INT,3456765876,1975-01-22,USA,USA,WILL_CALL,MN,USA,USD,331961133,MN,FL,OTERO,FABIO,AGRICULTURE,1961-09-23,USA,MIAMI,9478 SW 154TH CT,USA,S,S,S,B,W,S,DRV,FL,USA,SSN
3488591,3487991,USD,MTC,810 SKYFIELD AVE,CARLSBAD,CA,901283313,USA,ALN,AZ,USA,SSN,649249828,1966-11-08,USA,USA,WILL_CALL,MN,USA,USD,32824,MN,FL,GUTIERREZ MATA,YVETTE,DRIVER,1983-07-18,USA,ORLANDO,5035A RTE 31,USA,T,T,T,C,X,T,PAS,MN,USA,INT
3488593,3487992,USD,MTC,10 SKYLAND DR,COLBERT,GA,30628,USA,PAS,MN,USA,INT,3456765876,1988-08-08,USA,USA,WILL_CALL,MN,USA,USD,27521,MN,NC,MORGAN,JENNIFER,DRIVER,1986-06-16,USA,COATS,10935 S. LLOYD DR,USA,U,U,U,D,Y,U,PAS,MN,USA,INT
3488594,3487993,USD,MTC,26575 CARTRIGHT,NASHVILLE,AR,71852,USA,PAS,MN,USA,INT,3456765876,1985-07-14,USA,USA,WILL_CALL,MN,USA,USD,72373,MN,AR,AVALOS,MARGARITO,DRIVER,1942-05-27,USA,PARKIN,137 LOS ALAMOSDR,USA,V,V,V,E,Z,V,PAS,MN,USA,INT
3488596,3487994,USD,MTC,9061 SEWARD PARK AVE 29,CONOVER,NC,28613,USA,PAS,MN,USA,INT,3456765876,1987-04-14,USA,USA,WILL_CALL,MN,USA,USD,310699930,MN,GA,SANTIAGO,RALEIGH,DRIVER,1963-04-17,USA,PERRY,624 W PICKWICK,USA,W,W,W,F,A,W,PAS,AZ,USA,INT
3488597,3487995,USD,MTC,1415 ROAD RUNNER,MILWAUKEE,WI,53206,USA,PAS,MN,USA,INT,3456765876,1985-08-19,USA,USA,WILL_CALL,MN,USA,USD,75243,MN,TX,KENNEDY,SAFIYA,DRIVER,1983-07-18,USA,DALLAS,1744 N 44TH ST,USA,X,L,X,G,L,X,PAS,MN,USA,INT
3488598,3487996,USD,MTC,9478 SW 154TH CT,MIAMI,FL,331961133,USA,DRV,FL,USA,SSN,566395235,1961-09-23,USA,USA,WILL_CALL,MN,USA,USD,92346,MN,CA,ONEAL MCCAIN,IGNACIO,DRIVER,1982-03-02,USA,HIGHLAND,111 BLACK LN,USA,Y,M,Y,H,M,Y,PAS,MN,USA,INT
3488599,3487997,USD,MTC,5035A RTE 31,ORLANDO,FL,32824,USA,PAS,MN,USA,INT,3456765876,1983-07-18,USA,USA,WILL_CALL,MN,USA,USD,76002,MN,TX,ROBBINS,STACY,OTHERR,1961-02-15,USA,ARLINGTON,2056 ISLAND DR,USA,Z,N,Z,I,N,Z,PAS,MN,USA,INT
3488600,3487998,USD,MTC,10935 S. LLOYD DR,COATS,NC,27521,USA,PAS,MN,USA,INT,3456765876,1986-06-16,USA,USA,WILL_CALL,MN,USA,USD,31794,MN,GA,ALSHEETI,LAQUANDRA,DRIVER,1985-07-14,USA,TIFTON,21510 OLD HIGHWAY 365 N,USA,A,O,A,J,O,A,PAS,MN,USA,INT
3488601,3488611,USD,MTC,137 LOS ALAMOSDR,PARKIN,AR,72373,USA,PAS,MN,USA,INT,3456765876,1942-05-27,USA,USA,WILL_CALL,MN,USA,USD,983115694,MN,MI,PINON,EGIL,DRIVER,1985-07-14,USA,MONROE,120 W LAZY ACRE RD,USA,B,P,B,K,P,L,PAS,AZ,USA,INT
3488602,3488612,USD,MTC,624 W PICKWICK,PERRY,GA,310699930,USA,PAS,AZ,USA,INT,3456765876,1963-04-17,USA,USA,WILL_CALL,MN,USA,USD,303504638,MN,GA,ZAMBOU DONGMO,JEAN BLAISE,DRIVER,1972-12-28,USA,ATLANTA,8396 ROSWELL RD,USA,C,Q,C,L,Q,M,ALN,AZ,USA,SSN
3488603,3488613,USD,MTC,1744 N 44TH ST,DALLAS,TX,75243,USA,PAS,MN,USA,INT,3456765876,1983-07-18,USA,USA,WILL_CALL,MN,USA,USD,32808,MN,FL,ELLIOTT,ANNA,DRIVER,1975-01-22,USA,ORLANDO,729 BONNIE BRAE CIR,USA,D,R,D,M,R,N,PAS,MN,USA,INT
3488604,3488614,USD,MTC,111 BLACK LN,HIGHLAND,CA,92346,USA,PAS,MN,USA,INT,3456765876,1982-03-02,USA,USA,WILL_CALL,MN,USA,USD,86505,MN,AZ,BUCHANAN,JOANN,DRIVER,1986-07-17,USA,GANADO,848 AVE,USA,E,S,E,N,S,O,PAS,MN,USA,INT
3488605,3488615,USD,MTC,2056 ISLAND DR,ARLINGTON,TX,76002,USA,PAS,MN,USA,INT,3456765876,1961-02-15,USA,USA,WILL_CALL,MN,USA,USD,333147410,MN,FL,HEATHER,HEATHER,DRIVER,1971-11-19,USA,DAVIE,5721 SW 54TH AVE,USA,F,T,F,O,T,P,DRV,FL,USA,SSN
3488606,3488616,USD,MTC,21510 OLD HIGHWAY 365 N,TIFTON,GA,31794,USA,PAS,MN,USA,INT,3456765876,1985-07-14,USA,USA,WILL_CALL,MN,USA,USD,785861818,MN,TX,CUNNINGHAM,DORETHA,DRIVER,1985-07-14,USA,SAN BENITO,1849 UN,USA,G,U,G,P,U,Q,PAS,AZ,USA,INT
3488607,3488617,USD,MTC,120 W LAZY ACRE RD,MONROE,MI,983115694,USA,PAS,AZ,USA,INT,3456765876,1985-07-14,USA,USA,WILL_CALL,MN,USA,USD,31906,MN,GA,SAMUEL,SAMUEL,DRIVER,1963-05-21,USA,COLUMBUS,IDA DR PO BOX 12518,USA,H,V,H,Q,V,R,PAS,MN,USA,INT
3488608,3488618,USD,MTC,8396 ROSWELL RD,ATLANTA,GA,303504638,USA,ALN,AZ,USA,SSN,780695423,1972-12-28,USA,USA,WILL_CALL,MN,USA,USD,87031,MN,NM,ANTONIA,ANTONIA,DRIVER,1986-08-25,USA,LOS LUNAS,100 VILLAGE GREEN RD,USA,I,W,I,R,W,S,PAS,MN,USA,INT
3488609,3488619,USD,MTC,729 BONNIE BRAE CIR,ORLANDO,FL,32808,USA,PAS,MN,USA,INT,3456765876,1975-01-22,USA,USA,WILL_CALL,MN,USA,USD,87301,MN,NM,CAIN,DARLENE,DRIVER,1991-01-15,USA,GALLUP,10809 CRESSON ST,USA,J,Q,J,S,X,T,PAS,MN,USA,INT
3488610,3488620,USD,MTC,848 AVE,GANADO,AZ,86505,USA,PAS,MN,USA,INT,3456765876,1986-07-17,USA,USA,WILL_CALL,MN,USA,USD,351788091,MN,AL,TOWNSEND,SANDRA,DRIVER,1963-06-16,USA,VINCENT,34981 BACHELOR FLAT RD,USA,K,S,K,T,Y,U,PAS,AZ,USA,INT
3488995,3488621,USD,MTC,5721 SW 54TH AVE,DAVIE,FL,333147410,USA,DRV,FL,USA,SSN,527498261,1971-11-19,USA,USA,WILL_CALL,MN,USA,USD,770744425,MN,TX,CAMPOS,ANA,DRIVER,1955-06-07,USA,HOUSTON,8519 REIMS RD,USA,L,A,L,U,Z,V,DRV,TX,USA,SSN
3488585,3488622,USD,MTC,1849 UN,SAN BENITO,TX,785861818,USA,PAS,AZ,USA,INT,3456765876,1985-07-14,USA,USA,WILL_CALL,MN,USA,USD,701143808,MN,LA,LOPEZ,MARY,DRIVER,1989-11-21,USA,NEW ORLEANS,3402 MURL ST,USA,M,M,M,V,A,W,PAS,AZ,USA,INT
3488588,3488623,USD,MTC,IDA DR PO BOX 12518,COLUMBUS,GA,31906,USA,PAS,MN,USA,INT,3456765876,1963-05-21,USA,USA,WILL_CALL,MN,USA,USD,93257,MN,CA,CANCINO,MAURICIO,DRIVER,1980-10-18,USA,PORTERVILLE,220 W CHERRY AVE,USA,N,N,N,W,L,X,DRV,CA,USA,SSN
3488592,3488619,USD,MTC,100 VILLAGE GREEN RD,LOS LUNAS,NM,87031,USA,PAS,MN,USA,INT,3456765876,1986-08-25,USA,USA,WILL_CALL,MN,USA,USD,461512272,MN,IN,ENGLE,BRENDA,DRIVER,1961-02-15,USA,MARTINSVILLE,2430 SE 5TH CIR,USA,O,O,O,X,M,Y,PAS,AZ,USA,INT
3488595,3488620,USD,MTC,10809 CRESSON ST,GALLUP,NM,87301,USA,PAS,MN,USA,INT,3456765876,1991-01-15,USA,USA,WILL_CALL,MN,USA,USD,85741,MN,AZ,CLARINDA,CLARINDA,DRIVER,1990-06-16,USA,TUCSON,2300 W INA RD,USA,P,P,P,Y,N,Z,STA,AZ,USA,SSN
3488582,3488621,USD,MTC,34981 BACHELOR FLAT RD,VINCENT,AL,351788091,USA,PAS,AZ,USA,INT,3456765876,1963-06-16,USA,USA,WILL_CALL,MN,USA,USD,92553,MN,CA,GARCIA,STEPHANIE,DRIVER,1985-07-14,USA,MORENO VALLEY,8552 N 63RD AVE,USA,Q,Q,Q,Z,O,A,PAS,MN,USA,INT
3488583,3488622,USD,MTC,8519 REIMS RD,HOUSTON,TX,770744425,USA,DRV,TX,USA,SSN,754464488,1955-06-07,USA,USA,WILL_CALL,MN,USA,USD,60632,MN,IL,JACKSON,TIM,DRIVER,1975-01-22,USA,CHICAGO,4305 PAXTON LN SW,USA,R,R,R,A,P,L,PAS,MN,USA,INT
3488584,3488623,USD,MTC,3402 MURL ST,NEW ORLEANS,LA,701143808,USA,PAS,AZ,USA,INT,3456765876,1989-11-21,USA,USA,WILL_CALL,MN,USA,USD,782103153,MN,TX,DAVILA,MARY,DRIVER,1983-02-03,USA,SAN ANTONIO,1037 RIGSBY AVE,USA,S,S,S,F,Q,M,DRV,TX,USA,SSN
3488586,3488624,USD,MTC,220 W CHERRY AVE,PORTERVILLE,CA,93257,USA,DRV,CA,USA,SSN,737698867,1980-10-18,USA,USA,WILL_CALL,MN,USA,USD,93543,MN,CA,AMAYA GUZMAN,ANTONIO,DRIVER,1986-08-25,USA,LITTLEROCK,5300 BASELINE RD,USA,T,T,T,G,R,N,PAS,MN,USA,INT
3488587,3488625,USD,MTC,2430 SE 5TH CIR,MARTINSVILLE,IN,461512272,USA,PAS,AZ,USA,INT,3456765876,1961-02-15,USA,USA,WILL_CALL,MN,USA,USD,40108,MN,KY,DEMETRUS,DEMETRUS,DRIVER,1985-08-19,USA,BRANDENBURG,9211 CITADEL DR,USA,U,U,U,H,S,O,PAS,MN,USA,INT
3488589,3487984,USD,MTC,2300 W INA RD,TUCSON,AZ,85741,USA,STA,AZ,USA,SSN,724390107,1990-06-16,USA,USA,WILL_CALL,MN,USA,USD,45203,MN,OH,DURLIN,MARCOS,DRIVER,1961-02-15,USA,CINCINNATI,1045 EZZARD CHARLES DR,USA,V,V,V,I,T,P,PAS,MN,USA,INT
3488590,3487985,USD,MTC,8552 N 63RD AVE,MORENO VALLEY,CA,92553,USA,PAS,MN,USA,INT,3456765876,1985-07-14,USA,USA,WILL_CALL,MN,USA,USD,85021,MN,AZ,AMMELEO,AMMELEO,DRIVER,1984-10-22,USA,PHOENIX,1719 W GLENDALE AVE,USA,W,W,W,J,U,Q,STA,MI,USA,SSN
3488591,3487986,USD,MTC,4305 PAXTON LN SW,CHICAGO,IL,60632,USA,PAS,MN,USA,INT,3456765876,1975-01-22,USA,USA,WILL_CALL,MN,USA,USD,28334,MN,NC,MARCELINO MARTINEZ,JAMES,DRIVER,1988-08-08,USA,DUNN,600 47TH PLCE S,USA,X,X,X,K,V,R,PAS,MN,USA,INT
3488593,3487987,USD,MTC,1037 RIGSBY AVE,SAN ANTONIO,TX,782103153,USA,DRV,TX,USA,SSN,584721517,1983-02-03,USA,USA,WILL_CALL,MN,USA,USD,86520,MN,AZ,GONZALEZ,CLINTON E,DRIVER,1986-07-17,USA,BLUE GAP,4612 TRIPLE CROWN DR,USA,Y,Y,Y,L,W,S,PAS,MN,USA,INT
3488594,3487988,USD,MTC,5300 BASELINE RD,LITTLEROCK,CA,93543,USA,PAS,MN,USA,INT,3456765876,1986-08-25,USA,USA,WILL_CALL,MN,USA,USD,769623388,MN,NY,CASTANEDA,MARIA,DRIVER,1983-07-18,USA,BRONX,286 BRIARLEAF CIR,USA,Z,Z,Z,M,X,T,PAS,AZ,USA,INT
3488596,3487989,USD,MTC,9211 CITADEL DR,BRANDENBURG,KY,40108,USA,PAS,MN,USA,INT,3456765876,1985-08-19,USA,USA,WILL_CALL,MN,USA,USD,900691512,MN,CA,FLORES,RUDOLFO,DRIVER,1974-10-05,USA,WEST HOLLYWOOD,1744 KINGS WAY,USA,A,L,A,N,Y,U,ALN,AZ,USA,SSN
3488597,3487990,USD,MTC,1045 EZZARD CHARLES DR,CINCINNATI,OH,45203,USA,PAS,MN,USA,INT,3456765876,1961-02-15,USA,USA,WILL_CALL,MN,USA,USD,760105379,MN,TX,MOYERS,MATTHEW,DRIVER,1989-06-25,USA,ARLINGTON,2230 ELMWOOD DR,USA,B,M,B,O,Z,V,ALN,AZ,USA,SSN
3488598,3487991,USD,MTC,1719 W GLENDALE AVE,PHOENIX,AZ,85021,USA,STA,MI,USA,SSN,480392464,1984-10-22,USA,USA,WILL_CALL,MN,USA,USD,66502,MN,KS,ORTIZ,ELIZABETH,DRIVER,1983-01-09,USA,MANHATTAN,3214 HILLCREST DR,USA,C,N,C,P,A,W,PAS,MN,USA,INT
3488599,3487992,USD,MTC,600 47TH PLCE S,DUNN,NC,28334,USA,PAS,MN,USA,INT,3456765876,1988-08-08,USA,USA,WILL_CALL,MN,USA,USD,833030202,MN,SC,ARGUELLO,PATRICIA,DRIVER,1956-06-12,USA,HARTSVILLE,1410 OLD US ONE,USA,D,O,D,Q,L,X,PAS,AZ,USA,INT
3488600,3487993,USD,MTC,4612 TRIPLE CROWN DR,BLUE GAP,AZ,86520,USA,PAS,MN,USA,INT,3456765876,1986-07-17,USA,USA,WILL_CALL,MN,USA,USD,30038,MN,GA,SILVESTRE,SILVESTRE,DRIVER,1985-08-19,USA,LITHONIA,2376 WHITTAKER PKWY,USA,E,P,E,R,M,Y,PAS,MN,USA,INT
3488601,3487994,USD,MTC,286 BRIARLEAF CIR,BRONX,NY,769623388,USA,PAS,AZ,USA,INT,3456765876,1983-07-18,USA,USA,WILL_CALL,MN,USA,USD,33905,MN,FL,RAMAR,RAMAR,DRIVER,1963-06-16,USA,FORT MYERS,3037 DELMAR BLVD,USA,F,Q,F,S,N,Z,PAS,MN,USA,INT
3488602,3487995,USD,MTC,1744 KINGS WAY,WEST HOLLYWOOD,CA,900691512,USA,ALN,AZ,USA,SSN,640303750,1974-10-05,USA,USA,WILL_CALL,MN,USA,USD,85037,MN,AZ,MOORE,KRISTINA,DRIVER,1985-06-28,USA,PHOENIX,5569 DEEPDALE DR,USA,G,R,G,T,O,A,PAS,MN,USA,INT
3488603,3487996,USD,MTC,2230 ELMWOOD DR,ARLINGTON,TX,760105379,USA,ALN,AZ,USA,SSN,542128026,1989-06-25,USA,USA,WILL_CALL,MN,USA,USD,91763,MN,CA,GUZMAN,OLGA,DRIVER,1983-07-18,USA,MONTCLAIR,604 S BEACH BLVD,USA,H,S,H,U,P,L,PAS,MN,USA,INT
3488604,3487997,USD,MTC,3214 HILLCREST DR,MANHATTAN,KS,66502,USA,PAS,MN,USA,INT,3456765876,1983-01-09,USA,USA,WILL_CALL,MN,USA,USD,75840,MN,TX,TOLIVER,MICHELE,DRIVER,1963-05-21,USA,FAIRFIELD,405 D ST SE,USA,I,T,I,V,Q,M,PAS,MN,USA,INT
3488605,3487998,USD,MTC,1410 OLD US ONE,HARTSVILLE,SC,833030202,USA,PAS,AZ,USA,INT,3456765876,1956-06-12,USA,USA,WILL_CALL,MN,USA,USD,93720,MN,CA,MOODY,PAUL,DRIVER,1986-07-17,USA,FRESNO,61115 COLORADO,USA,J,U,J,W,R,N,PAS,MN,USA,INT
3488606,3488611,USD,MTC,2376 WHITTAKER PKWY,LITHONIA,GA,30038,USA,PAS,MN,USA,INT,3456765876,1985-08-19,USA,USA,WILL_CALL,MN,USA,USD,67357,MN,KS,DENNY II,RICKEY,DRIVER,1975-04-16,USA,PARSONS,4846 PROCTOR ST,USA,K,V,K,X,S,O,PAS,MN,USA,INT
3488607,3488612,USD,MTC,3037 DELMAR BLVD,FORT MYERS,FL,33905,USA,PAS,MN,USA,INT,3456765876,1963-06-16,USA,USA,WILL_CALL,MN,USA,USD,56789,MN,TX,FARROW,MARIO,DRIVER,1986-07-17,USA,AUSTIN,1702 DILGLEAGE DR,USA,L,W,L,Y,T,P,PAS,MN,USA,INT
3488608,3488613,USD,MTC,5569 DEEPDALE DR,PHOENIX,AZ,85037,USA,PAS,MN,USA,INT,3456765876,1985-06-28,USA,USA,WILL_CALL,MN,USA,USD,92252,MN,CA,OLAFSON,MARLEDA,OTHER,1982-05-17,USA,JOSHUA TREE,1411 NAILS CREEK DR,USA,M,N,M,Z,U,Q,PAS,MN,USA,INT
3488609,3488614,USD,MTC,604 S BEACH BLVD,MONTCLAIR,CA,91763,USA,PAS,MN,USA,INT,3456765876,1983-07-18,USA,USA,WILL_CALL,MN,USA,USD,86047,MN,AZ,BERWIN,BERWIN,DRIVER,1978-06-17,USA,WINSLOW,TULKAYLAM,USA,N,V,N,L,V,R,DRV,AZ,USA,SSN
3488610,3488615,USD,MTC,405 D ST SE,FAIRFIELD,TX,75840,USA,PAS,MN,USA,INT,3456765876,1963-05-21,USA,USA,WILL_CALL,MN,USA,USD,707104143,MN,LA,HYMAN,ANTARA,DRIVER,1988-08-08,USA,ADDIS,7432 KRAFT AVE,USA,O,P,O,M,W,S,PAS,AZ,USA,INT
3488995,3488616,USD,MTC,61115 COLORADO,FRESNO,CA,93720,USA,PAS,MN,USA,INT,3456765876,1986-07-17,USA,USA,WILL_CALL,MN,USA,USD,92020,MN,CA,HUDSON,MANUEL,DRIVER,1991-01-15,USA,EL CAJON,309 N BROAD ST,USA,P,E,P,N,X,T,PAS,MN,USA,INT
3488585,3488617,USD,MTC,4846 PROCTOR ST,PARSONS,KS,67357,USA,PAS,MN,USA,INT,3456765876,1975-04-16,USA,USA,WILL_CALL,MN,USA,USD,56789,MN,VA,FORREST,CHARLES,DRIVER,1985-06-28,USA,ALEXANDRIA,4157 KERWIN DR,USA,Q,R,Q,O,Y,U,PAS,MN,USA,INT
3488588,3488618,USD,MTC,1702 DILGLEAGE DR,AUSTIN,TX,56789,USA,PAS,MN,USA,INT,3456765876,1986-07-17,USA,USA,WILL_CALL,MN,USA,USD,825794042,MN,AL,OBRIEN,ANGELA,DRIVER,1975-01-22,USA,VESTAVIA,5326 80TH AVE SW,USA,R,Q,R,P,Z,V,PAS,AZ,USA,INT
3488592,3488619,USD,MTC,1411 NAILS CREEK DR,JOSHUA TREE,CA,92252,USA,PAS,MN,USA,INT,3456765876,1982-05-17,USA,USA,WILL_CALL,MN,USA,USD,95101,MN,CA,LUIS,LANCE,DRIVER,1978-06-19,USA,SAN JOSE,4400 LUNDY AVE,USA,S,E,S,Q,A,W,PAS,MN,USA,SSN
3488595,3488620,USD,MTC,TULKAYLAM,WINSLOW,AZ,86047,USA,DRV,AZ,USA,SSN,640386291,1978-06-17,USA,USA,WILL_CALL,MN,USA,USD,852988995,MN,AZ,LYNETTE,LYNETTE,DRIVER,1966-07-18,USA,GILBERT,17752 E CREOSOTE LN,USA,T,G,T,R,L,X,DRV,AZ,USA,SSN