unitProfileID,apiVersion,clientSoftwareVersion,isRecvCode,rcvCode,agencyAccountNumber,sndAddress,sndCity,sndState,sndZipCode,agencyName,agencyCity,isPAN
3487606,60,60,Y,1013,7812608394829180,2001 SUN CHARIOT,EL PASO,TX,79938,CAPITAL ONE,GLEN ALLEN,Y
3487607,60,60,N,1013,7812608394829180,135 S 500 E,KAYSVILLE,UT,84037,CAPITAL ONE,GLEN ALLEN,Y
3487608,60,60,Y,2156,12345678901,5234 BAREBACK DR,JAX,FL,32234,WORLD OMNI FINANCIAL CORP,MOBILE,N
3487610,60,60,Y,2156,12345678901,1043 CACTUS ST,ST DAVID,AZ,85630,WORLD OMNI FINANCIAL CORP,MOBILE,N
3487606,60,60,Y,1013,7812608394829180,4345 W RUSSELL,VISALIA,CA,93277,CAPITAL ONE,GLEN ALLEN,Y
3487607,60,60,N,1013,7812608394829180,7562 MARLINDA CIRCLE,FORT WORTH,TX,76140,CAPITAL ONE,GLEN ALLEN,Y
3487608,60,60,Y,2156,12345678901,PO BOX 51,GRAYLING,MI,49738,WORLD OMNI FINANCIAL CORP,MOBILE,N
3487610,60,60,Y,2156,12345678901,2958 TOPAZ ST,LAS VEGAS,NV,89121,WORLD OMNI FINANCIAL CORP,MOBILE,N
3487606,60,60,Y,1013,7812608394829180,2001 SUN CHARIOT,EL PASO,TX,79938,CAPITAL ONE,GLEN ALLEN,Y
3487607,60,60,N,1013,7812608394829180,135 S 500 E,KAYSVILLE,UT,84037,CAPITAL ONE,GLEN ALLEN,Y
3487608,60,60,Y,2156,12345678901,5234 BAREBACK DR,JAX,FL,32234,WORLD OMNI FINANCIAL CORP,MOBILE,N
3487610,60,60,Y,2156,12345678901,1043 CACTUS ST,ST DAVID,AZ,85630,WORLD OMNI FINANCIAL CORP,MOBILE,N
3487606,60,60,Y,1013,7812608394829180,4345 W RUSSELL,VISALIA,CA,93277,CAPITAL ONE,GLEN ALLEN,Y
3487607,60,60,N,1013,7812608394829180,7562 MARLINDA CIRCLE,FORT WORTH,TX,76140,CAPITAL ONE,GLEN ALLEN,Y
3487608,60,60,Y,2156,12345678901,PO BOX 51,GRAYLING,MI,49738,WORLD OMNI FINANCIAL CORP,MOBILE,N
3487610,60,60,Y,2156,12345678901,2958 TOPAZ ST,LAS VEGAS,NV,89121,WORLD OMNI FINANCIAL CORP,MOBILE,N
3487606,60,60,Y,1013,7812608394829180,2001 SUN CHARIOT,EL PASO,TX,79938,CAPITAL ONE,GLEN ALLEN,Y
3487607,60,60,N,1013,7812608394829180,135 S 500 E,KAYSVILLE,UT,84037,CAPITAL ONE,GLEN ALLEN,Y
3487608,60,60,Y,2156,12345678901,5234 BAREBACK DR,JAX,FL,32234,WORLD OMNI FINANCIAL CORP,MOBILE,N
3487610,60,60,Y,2156,12345678901,1043 CACTUS ST,ST DAVID,AZ,85630,WORLD OMNI FINANCIAL CORP,MOBILE,N
3487606,60,60,Y,1013,7812608394829180,4345 W RUSSELL,VISALIA,CA,93277,CAPITAL ONE,GLEN ALLEN,Y
3487607,60,60,N,1013,7812608394829180,7562 MARLINDA CIRCLE,FORT WORTH,TX,76140,CAPITAL ONE,GLEN ALLEN,Y
3487608,60,60,Y,2156,12345678901,PO BOX 51,GRAYLING,MI,49738,WORLD OMNI FINANCIAL CORP,MOBILE,N
3487610,60,60,Y,2156,12345678901,2958 TOPAZ ST,LAS VEGAS,NV,89121,WORLD OMNI FINANCIAL CORP,MOBILE,N
3487606,60,60,Y,1013,7812608394829180,2001 SUN CHARIOT,EL PASO,TX,79938,CAPITAL ONE,GLEN ALLEN,Y
3487607,60,60,N,1013,7812608394829180,135 S 500 E,KAYSVILLE,UT,84037,CAPITAL ONE,GLEN ALLEN,Y
3487608,60,60,Y,2156,12345678901,5234 BAREBACK DR,JAX,FL,32234,WORLD OMNI FINANCIAL CORP,MOBILE,N
3487610,60,60,Y,2156,12345678901,1043 CACTUS ST,ST DAVID,AZ,85630,WORLD OMNI FINANCIAL CORP,MOBILE,N
3487606,60,60,Y,1013,7812608394829180,4345 W RUSSELL,VISALIA,CA,93277,CAPITAL ONE,GLEN ALLEN,Y
3487607,60,60,N,1013,7812608394829180,7562 MARLINDA CIRCLE,FORT WORTH,TX,76140,CAPITAL ONE,GLEN ALLEN,Y
3487608,60,60,Y,2156,12345678901,PO BOX 51,GRAYLING,MI,49738,WORLD OMNI FINANCIAL CORP,MOBILE,N
3487610,60,60,Y,2156,12345678901,2958 TOPAZ ST,LAS VEGAS,NV,89121,WORLD OMNI FINANCIAL CORP,MOBILE,N
3487606,60,60,Y,1013,7812608394829180,2001 SUN CHARIOT,EL PASO,TX,79938,CAPITAL ONE,GLEN ALLEN,Y
3487607,60,60,N,1013,7812608394829180,135 S 500 E,KAYSVILLE,UT,84037,CAPITAL ONE,GLEN ALLEN,Y
3487608,60,60,Y,2156,12345678901,5234 BAREBACK DR,JAX,FL,32234,WORLD OMNI FINANCIAL CORP,MOBILE,N
3487610,60,60,Y,2156,12345678901,1043 CACTUS ST,ST DAVID,AZ,85630,WORLD OMNI FINANCIAL CORP,MOBILE,N
3487606,60,60,Y,1013,7812608394829180,4345 W RUSSELL,VISALIA,CA,93277,CAPITAL ONE,GLEN ALLEN,Y
3487607,60,60,N,1013,7812608394829180,7562 MARLINDA CIRCLE,FORT WORTH,TX,76140,CAPITAL ONE,GLEN ALLEN,Y
3487608,60,60,Y,2156,12345678901,PO BOX 51,GRAYLING,MI,49738,WORLD OMNI FINANCIAL CORP,MOBILE,N
3487610,60,60,Y,2156,12345678901,2958 TOPAZ ST,LAS VEGAS,NV,89121,WORLD OMNI FINANCIAL CORP,MOBILE,N
3487606,60,60,Y,1013,7812608394829180,2001 SUN CHARIOT,EL PASO,TX,79938,CAPITAL ONE,GLEN ALLEN,Y
3487607,60,60,N,1013,7812608394829180,135 S 500 E,KAYSVILLE,UT,84037,CAPITAL ONE,GLEN ALLEN,Y
3487608,60,60,Y,2156,12345678901,5234 BAREBACK DR,JAX,FL,32234,WORLD OMNI FINANCIAL CORP,MOBILE,N
3487610,60,60,Y,2156,12345678901,1043 CACTUS ST,ST DAVID,AZ,85630,WORLD OMNI FINANCIAL CORP,MOBILE,N
3487606,60,60,Y,1013,7812608394829180,4345 W RUSSELL,VISALIA,CA,93277,CAPITAL ONE,GLEN ALLEN,Y
3487607,60,60,N,1013,7812608394829180,7562 MARLINDA CIRCLE,FORT WORTH,TX,76140,CAPITAL ONE,GLEN ALLEN,Y
3487608,60,60,Y,2156,12345678901,PO BOX 51,GRAYLING,MI,49738,WORLD OMNI FINANCIAL CORP,MOBILE,N
3487610,60,60,Y,2156,12345678901,2958 TOPAZ ST,LAS VEGAS,NV,89121,WORLD OMNI FINANCIAL CORP,MOBILE,N
3487606,60,60,Y,1013,7812608394829180,2001 SUN CHARIOT,EL PASO,TX,79938,CAPITAL ONE,GLEN ALLEN,Y
3487607,60,60,N,1013,7812608394829180,135 S 500 E,KAYSVILLE,UT,84037,CAPITAL ONE,GLEN ALLEN,Y
3487608,60,60,Y,2156,12345678901,5234 BAREBACK DR,JAX,FL,32234,WORLD OMNI FINANCIAL CORP,MOBILE,N
3487610,60,60,Y,2156,12345678901,1043 CACTUS ST,ST DAVID,AZ,85630,WORLD OMNI FINANCIAL CORP,MOBILE,N
3487606,60,60,Y,1013,7812608394829180,4345 W RUSSELL,VISALIA,CA,93277,CAPITAL ONE,GLEN ALLEN,Y
3487607,60,60,N,1013,7812608394829180,7562 MARLINDA CIRCLE,FORT WORTH,TX,76140,CAPITAL ONE,GLEN ALLEN,Y
3487608,60,60,Y,2156,12345678901,PO BOX 51,GRAYLING,MI,49738,WORLD OMNI FINANCIAL CORP,MOBILE,N
3487610,60,60,Y,2156,12345678901,2958 TOPAZ ST,LAS VEGAS,NV,89121,WORLD OMNI FINANCIAL CORP,MOBILE,N
3487606,60,60,Y,1013,7812608394829180,2001 SUN CHARIOT,EL PASO,TX,79938,CAPITAL ONE,GLEN ALLEN,Y
3487607,60,60,N,1013,7812608394829180,135 S 500 E,KAYSVILLE,UT,84037,CAPITAL ONE,GLEN ALLEN,Y
3487608,60,60,Y,2156,12345678901,5234 BAREBACK DR,JAX,FL,32234,WORLD OMNI FINANCIAL CORP,MOBILE,N
3487610,60,60,Y,2156,12345678901,1043 CACTUS ST,ST DAVID,AZ,85630,WORLD OMNI FINANCIAL CORP,MOBILE,N
3487606,60,60,Y,1013,7812608394829180,4345 W RUSSELL,VISALIA,CA,93277,CAPITAL ONE,GLEN ALLEN,Y
3487607,60,60,N,1013,7812608394829180,7562 MARLINDA CIRCLE,FORT WORTH,TX,76140,CAPITAL ONE,GLEN ALLEN,Y
3487608,60,60,Y,2156,12345678901,PO BOX 51,GRAYLING,MI,49738,WORLD OMNI FINANCIAL CORP,MOBILE,N
3487610,60,60,Y,2156,12345678901,2958 TOPAZ ST,LAS VEGAS,NV,89121,WORLD OMNI FINANCIAL CORP,MOBILE,N
3487606,60,60,Y,1013,7812608394829180,2001 SUN CHARIOT,EL PASO,TX,79938,CAPITAL ONE,GLEN ALLEN,Y
3487607,60,60,N,1013,7812608394829180,135 S 500 E,KAYSVILLE,UT,84037,CAPITAL ONE,GLEN ALLEN,Y
3487608,60,60,Y,2156,12345678901,5234 BAREBACK DR,JAX,FL,32234,WORLD OMNI FINANCIAL CORP,MOBILE,N
3487610,60,60,Y,2156,12345678901,1043 CACTUS ST,ST DAVID,AZ,85630,WORLD OMNI FINANCIAL CORP,MOBILE,N
3487606,60,60,Y,1013,7812608394829180,4345 W RUSSELL,VISALIA,CA,93277,CAPITAL ONE,GLEN ALLEN,Y
3487607,60,60,N,1013,7812608394829180,7562 MARLINDA CIRCLE,FORT WORTH,TX,76140,CAPITAL ONE,GLEN ALLEN,Y
3487608,60,60,Y,2156,12345678901,PO BOX 51,GRAYLING,MI,49738,WORLD OMNI FINANCIAL CORP,MOBILE,N
3487610,60,60,Y,2156,12345678901,2958 TOPAZ ST,LAS VEGAS,NV,89121,WORLD OMNI FINANCIAL CORP,MOBILE,N
3487606,60,60,Y,1013,7812608394829180,2001 SUN CHARIOT,EL PASO,TX,79938,CAPITAL ONE,GLEN ALLEN,Y
3487607,60,60,N,1013,7812608394829180,135 S 500 E,KAYSVILLE,UT,84037,CAPITAL ONE,GLEN ALLEN,Y
3487608,60,60,Y,2156,12345678901,5234 BAREBACK DR,JAX,FL,32234,WORLD OMNI FINANCIAL CORP,MOBILE,N
3487610,60,60,Y,2156,12345678901,1043 CACTUS ST,ST DAVID,AZ,85630,WORLD OMNI FINANCIAL CORP,MOBILE,N
3487606,60,60,Y,1013,7812608394829180,4345 W RUSSELL,VISALIA,CA,93277,CAPITAL ONE,GLEN ALLEN,Y
3487607,60,60,N,1013,7812608394829180,7562 MARLINDA CIRCLE,FORT WORTH,TX,76140,CAPITAL ONE,GLEN ALLEN,Y
3487608,60,60,Y,2156,12345678901,PO BOX 51,GRAYLING,MI,49738,WORLD OMNI FINANCIAL CORP,MOBILE,N
3487610,60,60,Y,2156,12345678901,2958 TOPAZ ST,LAS VEGAS,NV,89121,WORLD OMNI FINANCIAL CORP,MOBILE,N
3487606,60,60,Y,1013,7812608394829180,2001 SUN CHARIOT,EL PASO,TX,79938,CAPITAL ONE,GLEN ALLEN,Y
3487607,60,60,N,1013,7812608394829180,135 S 500 E,KAYSVILLE,UT,84037,CAPITAL ONE,GLEN ALLEN,Y
3487608,60,60,Y,2156,12345678901,5234 BAREBACK DR,JAX,FL,32234,WORLD OMNI FINANCIAL CORP,MOBILE,N
3487610,60,60,Y,2156,12345678901,1043 CACTUS ST,ST DAVID,AZ,85630,WORLD OMNI FINANCIAL CORP,MOBILE,N
3487606,60,60,Y,1013,7812608394829180,4345 W RUSSELL,VISALIA,CA,93277,CAPITAL ONE,GLEN ALLEN,Y
3487607,60,60,N,1013,7812608394829180,7562 MARLINDA CIRCLE,FORT WORTH,TX,76140,CAPITAL ONE,GLEN ALLEN,Y
3487608,60,60,Y,2156,12345678901,PO BOX 51,GRAYLING,MI,49738,WORLD OMNI FINANCIAL CORP,MOBILE,N
3487610,60,60,Y,2156,12345678901,2958 TOPAZ ST,LAS VEGAS,NV,89121,WORLD OMNI FINANCIAL CORP,MOBILE,N
3487606,60,60,Y,1013,7812608394829180,2001 SUN CHARIOT,EL PASO,TX,79938,CAPITAL ONE,GLEN ALLEN,Y
3487607,60,60,N,1013,7812608394829180,135 S 500 E,KAYSVILLE,UT,84037,CAPITAL ONE,GLEN ALLEN,Y
3487608,60,60,Y,2156,12345678901,5234 BAREBACK DR,JAX,FL,32234,WORLD OMNI FINANCIAL CORP,MOBILE,N
3487610,60,60,Y,2156,12345678901,1043 CACTUS ST,ST DAVID,AZ,85630,WORLD OMNI FINANCIAL CORP,MOBILE,N
3487606,60,60,Y,1013,7812608394829180,4345 W RUSSELL,VISALIA,CA,93277,CAPITAL ONE,GLEN ALLEN,Y
3487607,60,60,N,1013,7812608394829180,7562 MARLINDA CIRCLE,FORT WORTH,TX,76140,CAPITAL ONE,GLEN ALLEN,Y
3487608,60,60,Y,2156,12345678901,PO BOX 51,GRAYLING,MI,49738,WORLD OMNI FINANCIAL CORP,MOBILE,N
3487610,60,60,Y,2156,12345678901,2958 TOPAZ ST,LAS VEGAS,NV,89121,WORLD OMNI FINANCIAL CORP,MOBILE,N
3487606,60,60,Y,1013,7812608394829180,2001 SUN CHARIOT,EL PASO,TX,79938,CAPITAL ONE,GLEN ALLEN,Y
3487607,60,60,N,1013,7812608394829180,135 S 500 E,KAYSVILLE,UT,84037,CAPITAL ONE,GLEN ALLEN,Y
3487608,60,60,Y,2156,12345678901,5234 BAREBACK DR,JAX,FL,32234,WORLD OMNI FINANCIAL CORP,MOBILE,N
3487610,60,60,Y,2156,12345678901,1043 CACTUS ST,ST DAVID,AZ,85630,WORLD OMNI FINANCIAL CORP,MOBILE,N